[   "limbo",
    "acheron",
    "slaughterhouse",
    "loochiverse",
    "citra",
    "verdant_landscape",
    "the_hallucination",
    "corrupted_planet",
    "hard_machine",
    "frozen_cave",
    "mutiny",
    "critical_heat",
    "aerial_gleam",
    "eternal_moment",
    "cognition",
    "neutra",
    "africa_circles",
    "oblivion",
    "solar_flare",
    "random_access_memory",
    "terminux",
    "sigma",
    "calamity",
    "henken",
    "glacial_dream",
    "walter_white",
    "descent_into_exile",
    "natural_disaster",
    "dark_flare",
    "cold_sweat",
    "atomic_cannon_mk_ii",
    "the_golden",
    "marathon",
    "spectrum_cyclone",
    "silent_clubstep",
    "lotus_flower",
    "super_probably_level",
    "enjoy",
    "down_bass_incarnate",
    "gustavo_fring",
    "aquatic_auroras",
    "sweeping_demon",
    "pagoda",
    "knights_of_thunder",
    "anemesis",
    "ringy_paracosm",
    "silent_helheim",
    "kenos",
    "visible_ray",
    "unknown",
    "trueffet",
    "sparkling",
    "rust",
    "belloq",
    "hyper_paracosm",
    "fusiondynamix",
    "azure_abyss",
    "ragnarok",
    "the_wiener",
    "lucid_nightmares",
    "nightshade",
    "wow",
    "shardscapes",
    "no_jokes",
    "omega_interface",
    "the_hell_origin",
    "molten_core",
    "call_me_maybe",
    "chromatic_haze",
    "celestial_force",
    "qoueo",
    "azure_flare",
    "the_reaper",
    "jesse_pinkman",
    "arcturus",
    "p00p",
    "wasureta",
    "aquamarine",
    "diabolic_clubstep",
    "zodiac",
    "minusdry",
    "ocular_miracle",
    "kowareta",
    "szyslak",
    "promethean",
    "keres",
    "edge_of_the_blade",
    "ddiamond",
    "timor",
    "lucid_chaos",
    "vengeance",
    "sakupen_circles",
    "deimos_(tygrysek_version)",
    "killbot",
    "plasma_pulse_finale",
    "chroma_ii",
    "macabre",
    "untitled_unmastered",
    "la_magicienne_rose",
    "sonic_wave_rebirth",
    "escape_room",
    "aronia",
    "superhatemeworld",
    "arctic_lights",
    "yatagarasu",
    "jelly_shots",
    "thinking_space",
    "the_rupture",
    "sink",
    "isleptinvc",
    "artificial_ascent",
    "the_yandere",
    "triple_six",
    "spectrum_rave",
    "xo",
    "chroma_finale",
    "dolos",
    "surge_of_the_shield",
    "sary_never_clear",
    "ethereal_artifice",
    "edge_of_destiny",
    "euphoria",
    "sunset_sandstorm",
    "aftercatabath",
    "lateral_myst",
    "atomic_cannon",
    "erebus",
    "rosedynamix",
    "veil",
    "ouroboros",
    "love",
    "shatter",
    "addiction",
    "viridian",
    "stereo_lament",
    "cybernetic_crescent",
    "rage",
    "firework",
    "explicit",
    "hephaestus",
    "beztana_vortex",
    "aesthetic",
    "moment",
    "cobwebs",
    "retribution",
    "prismatic_haze",
    "element_111_rg",
    "generic_wave",
    "hateful_reflection",
    "abandoned",
    "motorbreath",
    "maybe_possibly_thing",
    "le_fishe",
    "glacial_core",
    "factory_realm_x",
    "sinister_incision",
    "monstrosity",
    "low_death",
    "quantum_dynamix",
    "unnerfed_allegiance"
]
