{
    "id": 67942768,
    "name": "Shitty Aerial Gleam",
    "author": "Chspchips",
    "creators": [],
    "verifier": "iRaily",
    "verification": "https://www.youtube.com/watch?v=ghMSAgmih0U",
    "showcase": "https://youtu.be/QG5c7wT9vAM",
    "percentToQualify": 53,
    "records": [
        {
            "user": "BrightBird",
            "link": "https://youtu.be/Ler6bBSk-SQ",
            "percent": 100,
            "hz": 288
        },
        {
            "user": "lucci",
            "link": "https://youtu.be/36HYC46hoLA",
            "percent": 100,
            "hz": 360
        },
        {
            "user": "Alaniz004",
            "link": "https://youtu.be/MF_Vbgv5UUI",
            "percent": 100,
            "hz": 360
        },
        {
            "user": "biskit",
            "link": "https://youtu.be/--0oGvYUcoo",
            "percent": 100,
            "hz": 360
        },
        {
            "user": "Marke",
            "link": "https://youtu.be/ubot5PGTX5I",
            "percent": 100,
            "hz": 288
        },
        {
            "user": "Dandy Chiggins",
            "link": "https://www.youtube.com/watch?v=mkmVJ1MR_LY",
            "percent": 100,
            "hz": 360
        },
        {
            "user": "KylashTheKiller",
            "link": "https://youtu.be/YbH58puf28E",
            "percent": 100,
            "hz": 60
        },
        {
            "user": "Kenos Song",
            "link": "https://youtu.be/UBGcrpl688g",
            "percent": 100,
            "hz": 360
        },
        {
            "user": "Gamez",
            "link": "https://www.youtube.com/watch?v=_ar1fTF4hFQ",
            "percent": 100,
            "hz": 240
        },
        {
            "user": "antisynth",
            "link": "https://www.youtube.com/watch?v=2lnXtIqH5Eg",
            "percent": 100,
            "hz": 330
        },
        {
            "user": "Holy",
            "link": "https://www.youtube.com/watch?v=Pg--sBUzRoA",
            "percent": 100,
            "hz": 144
        },
        {
            "user": "SoWOW",
            "link": "https://youtu.be/HEhuflnFJVE",
            "percent": 100,
            "hz": 120
        },
        {
            "user": "GD CrimsonKing22",
            "link": "https://www.youtube.com/watch?v=IpodrL7bbjg",
            "percent": 100,
            "hz": 360
        },
        {
            "user": "Doggie",
            "link": "https://www.youtube.com/watch?v=T_chbOzsCaU",
            "percent": 100,
            "hz": 360
        },
        {
            "user": "h4tecr1me.",
            "link": "https://www.youtube.com/watch?v=SZjCm_BtXmU",
            "percent": 100,
            "hz": 360
        },
        {
            "user": "MustafaAydin",
            "link": "https://youtu.be/AnwZ2ufG4a4",
            "percent": 68,
            "hz": 240
        },
        {
            "user": "vKaii",
            "link": "https://www.youtube.com/watch?v=Otm3WbUVeEg",
            "percent": 100,
            "hz": 360
        },
        {
            "user": "IKuster",
            "link": "https://youtu.be/jz-oGHO4tJw",
            "percent": 100,
            "hz": 300
        },
        {
            "user": "Vicrf",
            "link": "https://youtu.be/-i2GSc5PIeE",
            "percent": 100,
            "hz": 288
        },
        {
            "user": "bnuuy",
            "link": "https://youtu.be/Ko6ey7W0Pq8",
            "percent": 100,
            "hz": 360
        },
        {
            "user": "wafflesniffer49",
            "link": "https://www.youtube.com/watch?v=twWNEqKFVW8",
            "percent": 100,
            "hz": 60
        },
        {
            "user": "Goulzz",
            "link": "https://drive.google.com/file/d/1uMy9oeJIM5tHNEYZ8Sqz6dsa5FGJnJL2/view",
            "percent": 100,
            "hz": 360
        },
        {
            "user": "LRub1x",
            "link": "https://www.youtube.com/watch?v=GxICiguBBpQ",
            "percent": 100,
            "hz": 360
        },
        {
            "user": "Neltumn",
            "link": "https://www.youtube.com/watch?v=-uqdZmBgL7E&t=18s",
            "percent": 100,
            "hz": 360
        },
        {
            "user": "asdsdvb",
            "link": "https://www.youtube.com/watch?v=FpMxB_X9QvM",
            "percent": 100,
            "hz": 360
        },
        {
            "user": "zepynr",
            "link": "https://youtu.be/CNCOuT0AvfI",
            "percent": 100,
            "hz": 360
        },
        {
            "user": "Diverse",
            "link": "https://www.youtube.com/watch?v=yndx9vVkrXQ",
            "percent": 100,
            "hz": 321
        },
        {
            "user": "Sloppy Joe Gaming",
            "link": "https://www.youtube.com/watch?v=wHi8j5_CdmI",
            "percent": 100,
            "hz": 360
        },
        {
            "user": "BarbequeSauce",
            "link": "https://www.youtube.com/watch?v=wHi8j5_CdmI",
            "percent": 100,
            "hz": 360
        },
        {
            "user": "Dylinator",
            "link": "https://youtu.be/aXb4WFJVLeU?t=919",
            "percent": 100,
            "hz": 360
        },
        {
            "user": "sydno",
            "link": "https://youtu.be/NYJoGOs4xnE",
            "percent": 100,
            "hz": 360
        },
        {
            "user": "skyv",
            "link": "https://youtu.be/7h-OC4YaDaU",
            "percent": 100,
            "hz": 360
        },
        {
            "user": "LzKlauss",
            "link": "https://youtu.be/QRKOPR-5_AE",
            "percent": 100,
            "hz": 360
        },
        {
            "user": "CremCrem",
            "link": "https://youtu.be/V5sV04kBaaU",
            "percent": 100,
            "hz": 144
        },
        {
            "user": "lonifer",
            "link": "https://www.youtube.com/watch?v=HuNPZR0HhBk",
            "percent": 100,
            "hz": 360
        },
        {
            "user": "miguel6456",
            "link": "https://youtu.be/0vfUm91-M2g",
            "percent": 100,
            "hz": 360
        },
        {
            "user": "Zernias",
            "link": "https://youtu.be/6rYpunkvZtg",
            "percent": 100,
            "hz": 360
        },
        {
            "user": "Wyvern",
            "link": "https://www.youtube.com/watch?v=F8kL9jN2hgA",
            "percent": 100,
            "hz": 360
        }
            
    ]
}    
    

