{
    "id": 78101918,
    "name": "Shitty Aquamarine",
    "author": "bnuuy",
    "creators": [
        "bnuuy",
        "Spaace",
        "Gokill",
        "h4tecr1me",
        "hexuri"
    ],
    "verifier": "Slayer",
    "verification": "https://youtu.be/BvDxO3gcRtY",
    "showcase": "https://youtu.be/z9WXg5sXXhA",
    "percentToQualify": 71,
    "records": [
        {
            "user": "attrixia",
            "link": "https://www.youtube.com/watch?v=4J5to7s1uf8",
            "percent": 100,
            "hz": 150
        },
        {
            "user": "KylashTheKiller",
            "link": "https://www.youtube.com/watch?v=DpqBGASmECk",
            "percent": 100,
            "hz": 60
        },
        {
            "user": "Dandy Chiggins",
            "link": "https://youtu.be/i3KG5eobo28",
            "percent": 100,
            "hz": 240
        },
        {
            "user": "klopa",
            "link": "https://www.youtube.com/watch?v=u3yT1verZxo",
            "percent": 100,
            "hz": 60
        },
        {
            "user": "Kenos Song",
            "link": "https://www.youtube.com/watch?v=OBLkDN9e7M8",
            "percent": 100,
            "hz": 360
        },
        {
            "user": "iRaily",
            "link": "https://youtu.be/2uVr3if-De8",
            "percent": 100,
            "hz": 288
        },
        {
            "user": "Gamez",
            "link": "https://www.youtube.com/watch?v=6w7fI6a_ZwU",
            "percent": 100,
            "hz": 240
        },
        {
            "user": "Zernias",
            "link": "https://youtu.be/hHLSEzUW6AY",
            "percent": 100,
            "hz": 360
        },
        {
            "user": "Decin0",
            "link": "https://youtu.be/ZVc6GwQ2Z-E",
            "percent": 100,
            "hz": 360
        },
        {
            "user": "satsuki",
            "link": "https://youtu.be/z29van-4hic",
            "percent": 100,
            "hz": 360
        },
        {
            "user": "Oblivion7",
            "link": "https://www.youtube.com/watch?v=IJFWaawcs7k",
            "percent": 100,
            "hz": 120
        },
        {
            "user": "GD CrimsonKing22",
            "link": "https://www.youtube.com/watch?v=3KT1JrxyXvY&t=2s&ab_channel=GDCrimsonKing22",
            "percent": 100,
            "hz": 360
        },
        {
            "user": "SoWOW",
            "link": "https://youtu.be/lHliIr4846c",
            "percent": 100,
            "hz": 120,
            "mobile": true
        },
        {
            "user": "BrightBird",
            "link": "https://youtu.be/aA-JfMszWPA",
            "percent": 100,
            "hz": 288
        },
        {
            "user": "biskit",
            "link": "https://youtu.be/lFlH8SClURA",
            "percent": 100,
            "hz": 360
        },
        {
            "user": "Vaoen",
            "link": "https://www.twitch.tv/videos/1553013386",
            "percent": 100,
            "hz": 288
        },
        {
            "user": "bnuuy",
            "link": "https://www.youtube.com/watch?v=kj8sW8PWE-Q",
            "percent": 100,
            "hz": 360
        },
        {
            "user": "h4tecr1me.",
            "link": "https://www.youtube.com/watch?v=tuWOZ3zMjgI",
            "percent": 100,
            "hz": 360
        },
        {
            "user": "IKuster",
            "link": "https://youtu.be/Ja4upudVWjs",
            "percent": 100,
            "hz": 300
        },
        {
            "user": "vKaii",
            "link": "https://www.youtube.com/watch?v=ByI-bTprGZ4",
            "percent": 100,
            "hz": 288
        },
        {
            "user": "Neltumn",
            "link": "https://www.youtube.com/watch?v=ieykUTNnRhw",
            "percent": 100,
            "hz": 360
        },
        {
            "user": "miguel6456",
            "link": "https://youtu.be/n4k-Dxt-4kI",
            "percent": 100,
            "hz": 360
        },
        {
            "user": "Villa",
            "link": "https://youtu.be/pCTWPKtBSR0",
            "percent": 100,
            "hz": 360
        },
        {
            "user": "Sloppy Joe Gaming",
            "link": "https://www.youtube.com/watch?v=INBvZxeoclg",
            "percent": 100,
            "hz": 360
        },
        {
            "user": "aza74",
            "link": "https://youtu.be/PzAHSgSSTsk",
            "percent": 100,
            "hz": 240
        },
        {
            "user": "Dylinator",
            "link": "https://youtu.be/aXb4WFJVLeU?t=303",
            "percent": 100,
            "hz": 360
        },
        {
            "user": "rebooou",
            "link": "https://www.youtube.com/watch?v=DiS6QPmM9ho",
            "percent": 100,
            "hz": 60
        },
        {
            "user": "sydno",
            "link": "https://youtu.be/eAMc2ROaE44",
            "percent": 100,
            "hz": 360
        },
        {
            "user": "KasiaUwU",
            "link": "https://youtu.be/TMGbSqP5ctY",
            "percent": 100,
            "hz": 240
        },
        {
            "user": "Quirrel",
            "link": "https://youtu.be/pA6U4flM200",
            "percent": 100,
            "hz": 300
        },
        {
            "user": "RealEB2610",
            "link": "https://youtu.be/jcCgMrDfJy8",
            "percent": 100,
            "hz": 288
        },
        {
            "user": "Clare",
            "link": "https://www.youtube.com/watch?v=1qdb-AkJ9Ps",
            "percent": 100,
            "hz": 321
        },
        {
            "user": "Diverse",
            "link": "https://youtu.be/eUOqdkup5ZQ",
            "percent": 100,
            "hz": 360
        },
        {
            "user": "GD Fayo",
            "link": "https://www.youtube.com/watch?v=tLgzjcdaQt4&ab_channel=GDFayo",
            "percent": 100,
            "hz": 360
        }
    ]
}
