{
    "id": 82037522,
    "name": "Shitty Arctic Lights",
    "author": "Ryoui",
    "creators": [],
    "verifier": "poop kink",
    "verification": "https://youtu.be/kx0O7Zz-6so",
    "showcase": "https://youtu.be/LC-JWC6qdCc",
    "percentToQualify": 64,
    "records": [
        {
            "user": "skeeb",
            "link": "https://youtube.com/watch?v=Vxj2Z5-RmvI",
            "percent": 100,
            "hz": 288
        },
        {
            "user": "Kenos Song",
            "link": "https://youtu.be/GJj-8chLpd4",
            "percent": 100,
            "hz": 360
        },
        {
            "user": "Decin0",
            "link": "https://youtu.be/8HQ00jd5b5s",
            "percent": 100,
            "hz": 360
        },
        {
            "user": "woi",
            "link": "https://www.youtube.com/watch?v=XK5mx5ToLbU",
            "percent": 100,
            "hz": 300
        },
        {
            "user": "Dandy Chiggins",
            "link": "https://youtu.be/9EPPWh26xz0",
            "percent": 100,
            "hz": 360
        },
        {
            "user": "qzkk",
            "link": "https://www.youtube.com/watch?v=kaULchUr6wk",
            "percent": 100,
            "hz": 360
        },
        {
            "user": "Delay",
            "link": "https://youtu.be/LdkRsbxKsss",
            "percent": 100,
            "hz": 288
        },
        {
            "user": "Ratio",
            "link": "https://youtu.be/wVQ1RJGkFt4",
            "percent": 100,
            "hz": 360
        },
        {
            "user": "SagerR",
            "link": "https://youtu.be/YoMaTS2xWms",
            "percent": 100,
            "hz": 360
        },
        {
            "user": "PremiumLeviathan",
            "link": "https://www.youtube.com/watch?v=6YnQyN7R1UM",
            "percent": 100,
            "hz": 360
        },
        {
            "user": "vKaii",
            "link": "https://www.youtube.com/watch?v=lpKh7jThSv4",
            "percent": 100,
            "hz": 288
        },
        {
            "user": "Goulzz",
            "link": "https://www.youtube.com/watch?v=p33VVrMbfeM",
            "percent": 100,
            "hz": 330
        },
        {
            "user": "frol1kkk",
            "link": "https://youtu.be/BARFDQUb74g",
            "percent": 100,
            "hz": 360
        },
        {
            "user": "Tunax",
            "link": "https://youtu.be/J9iu3ORuwgA",
            "percent": 100,
            "hz": 360
        },
        {
            "user": "sydno",
            "link": "https://www.youtube.com/watch?v=JbgrpbYYJL8",
            "percent": 100,
            "hz": 360
        },
        {
            "user": "Kunai",
            "link": "https://youtu.be/SF_GB_wnd4k",
            "percent": 100,
            "hz": 360
        },
        {
            "user": "Sloppy Joe Gaming",
            "link": "https://www.youtube.com/watch?v=vbk1qUMEtQI",
            "percent": 100,
            "hz": 360
        },
        {
            "user": "MayoYoma",
            "link": "https://www.youtube.com/watch?v=cO1amy4Ag2A",
            "percent": 100,
            "hz": 240
        },
        {
            "user": "aidantr",
            "link": "https://youtu.be/2VditfOGNZI",
            "percent": 100,
            "hz": 360
        },
        {
            "user": "Acacia",
            "link": "https://youtu.be/czXoSKiFuJY",
            "percent": 100,
            "hz": 360
        },
        {
            "user": "Dylinator",
            "link": "https://youtu.be/aXb4WFJVLeU?t=166",
            "percent": 100,
            "hz": 360
        },
        {
            "user": "LzKlauss",
            "link": "https://www.youtube.com/watch?v=Vg2HBLaecH8",
            "percent": 100,
            "hz": 360
        },
        {
            "user": "AleczD",
            "link": "https://www.youtube.com/watch?v=1Lj2RSV0d_U",
            "percent": 100,
            "hz": 240
        },
        {
            "user": "nWine",
            "link": "https://youtu.be/BXgfeqLe0eM",
            "percent": 100,
            "hz": 360
        },
        {
            "user": "KasiaUwU",
            "link": "https://youtu.be/jssSoSAr8Xc",
            "percent": 100,
            "hz": 240
        },
        {
            "user": "Nsaynchkn",
            "link": "https://youtu.be/BrJS2Z95v4Q",
            "percent": 100,
            "hz": 360
        },
        {
            "user": "ianyeric",
            "link": "https://youtu.be/V2DcdZk9DJs",
            "percent": 100,
            "hz": 288
        },
        {
            "user": "Dipper552",
            "link": "https://youtu.be/2pV3Gjj3z_U?t=208",
            "percent": 100,
            "hz": 144
        },
        {
            "user": "hreestobro",
            "link": "https://www.youtube.com/watch?v=xftEcQ2NGoQ",
            "percent": 100,
            "hz": 360
        },
        {
            "user": "Drako",
            "link": "https://youtu.be/WLnj2g3nN8k",
            "percent": 100,
            "hz": 360
        },
        {
            "user": "iRaily",
            "link": "https://youtu.be/TN4bGgj5iS0",
            "percent": 100,
            "hz": 288
        },
        {
            "user": "Timy",
            "link": "https://youtu.be/r96H5TUE0Tc",
            "percent": 100,
            "hz": 360
        },
        {
            "user": "Quirrel",
            "link": "https://youtu.be/dty4pFmlpMc",
            "percent": 100,
            "hz": 300
        },
        {
            "user": "manoayudante",
            "link": "https://www.youtube.com/watch?v=T1Ilwiw4sPQ",
            "percent": 100,
            "hz": 360
        },
        {
            "user": "Clare",
            "link": "https://www.youtube.com/watch?v=JK_3IUvL-O0",
            "percent": 100,
            "hz": 321
        },
        {
            "user": "Dwoink",
            "link": "https://youtu.be/feoIeFs-LfI",
            "percent": 100,
            "hz": 360
        },
        {
            "user": "Slaughter",
            "link": "https://drive.google.com/file/d/1fPS7c00NedRy_k87wkXnAFkmqZiGZOKi/view?usp=sharing",
            "percent": 100,
            "hz": 360
        },
        {
            "user": "Nik14K",
            "link": "https://youtu.be/PW9iMkofb54",
            "percent": 100,
            "hz": 240
        },
        {
            "user": "Riptide",
            "link": "https://youtu.be/ltNpPPEGw2Q",
            "percent": 100,
            "hz": 240
        },
        {
            "user": "skyv",
            "link": "https://youtu.be/FSQvFuwHfE4",
            "percent": 100,
            "hz": 360
        },
        {
            "user": "Wyvern",
            "link": "https://www.youtube.com/watch?v=bnJt6y70uGU",
            "percent": 100,
            "hz": 360
        },
        {
            "user": "CringyDylan",
            "link": "https://www.youtube.com/watch?v=YLEi1oMyaOY",
            "percent": 100,
            "hz": 288
        }
    ]
}
