{
    "id": 87099040,
    "name": "Shitty Cognition",
    "author": "Rixen Ace",
    "creators": [
    "Rixen Ace",
    "Prometheus",    
    "Quick"
],
    "verifier": "Rixen Ace",
    "verification": "https://youtu.be/fiJLX3i-nvo",
    "showcase": "https://youtu.be/Z6zaRqVpHmQ",
    "percentToQualify": 53,
    "password": "Free to Copy",
    "records": [
        {
            "user": "Dylinator",
            "link": "https://www.youtube.com/watch?v=6Sz6aWsWDSM",
            "percent": 100,
            "hz": 360
        },
        {
            "user": "Diverse",
            "link": "https://youtu.be/IkAxPOHnHcw",
            "percent": 100,
            "hz": 321
        },
        {
            "user": "Lawnmower",
            "link": "https://www.twitch.tv/piesy/v/1794098084?sr=a&t=349s",
            "percent": 100,
            "hz": 240
        },
        {
            "user": "exsii",
            "link": "https://youtu.be/tOtZ61oONsI",
            "percent": 100,
            "hz": 300
        },
        {
            "user": "TheKalvinator",
            "link": "https://youtu.be/bMvX8f_gFZA",
            "percent": 100,
            "hz": 360
        },
        {
            "user": "KylashTheKiller",
            "link": "https://youtu.be/Ml33ikqpVkM",
            "percent": 100,
            "hz": 60
        }
    ]
}
