{
    "id": 94218361,
    "name": "Shitty Ocular Miracle",
    "author": "ChspChips",
    "creators": [],
    "verifier": "Diverse",
    "verification": "https://youtu.be/Z7bRCXJys98?si=aNeBSyQy_0xQNg24",
    "percentToQualify": 100,
    "records": []
}
